tests/sim/tb_spi_wb_register.vcd
$date
	Wed Jan 14 20:22:11 2026
$end
$version
	Icarus Verilog
$end
$timescale
	1ps
$end
$scope module tb_spi_wb_register $end
$var wire 1 ! wb_we $end
$var wire 1 " wb_stb $end
$var wire 8 # wb_dat_o [7:0] $end
$var wire 8 $ wb_dat_i [7:0] $end
$var wire 1 % wb_cyc $end
$var wire 16 & wb_adr [15:0] $end
$var wire 1 ' wb_ack $end
$var wire 1 ( spi_miso $end
$var reg 1 ) clk $end
$var reg 1 * rst $end
$var reg 1 + spi_cs_n $end
$var reg 1 , spi_mosi $end
$var reg 1 - spi_sclk $end
$var integer 32 . fail_cnt [31:0] $end
$var integer 32 / idx [31:0] $end
$var integer 32 0 pass_cnt [31:0] $end
$scope module dut_bridge $end
$var wire 1 ) clk $end
$var wire 1 * rst $end
$var wire 1 + spi_cs_n $end
$var wire 1 , spi_mosi $end
$var wire 1 - spi_sclk $end
$var wire 1 1 spi_sclk_negedge $end
$var wire 1 2 spi_sclk_posedge $end
$var wire 8 3 wb_dat_i [7:0] $end
$var wire 1 ' wb_ack_i $end
$var wire 1 ( spi_miso $end
$var wire 1 4 spi_cs_active $end
$var parameter 2 5 WB_DONE $end
$var parameter 2 6 WB_IDLE $end
$var parameter 2 7 WB_WAIT_ACK $end
$var reg 16 8 addr [15:0] $end
$var reg 8 9 addr_high [7:0] $end
$var reg 8 : addr_low [7:0] $end
$var reg 3 ; bit_count [2:0] $end
$var reg 3 < byte_count [2:0] $end
$var reg 8 = byte_shift [7:0] $end
$var reg 8 > cmd [7:0] $end
$var reg 8 ? data_in [7:0] $end
$var reg 1 @ first_bit_sent $end
$var reg 1 A is_read $end
$var reg 8 B read_data [7:0] $end
$var reg 1 C read_data_valid $end
$var reg 1 D spi_cs_n_d1 $end
$var reg 1 E spi_cs_n_d2 $end
$var reg 1 F spi_cs_n_d3 $end
$var reg 1 G spi_mosi_d1 $end
$var reg 1 H spi_mosi_d2 $end
$var reg 1 I spi_sclk_d1 $end
$var reg 1 J spi_sclk_d2 $end
$var reg 1 K spi_sclk_d3 $end
$var reg 1 L start_read $end
$var reg 1 M transaction_complete $end
$var reg 1 N tx_active $end
$var reg 3 O tx_bit_count [2:0] $end
$var reg 1 P tx_data_loaded $end
$var reg 8 Q tx_shift [7:0] $end
$var reg 16 R wb_adr_o [15:0] $end
$var reg 1 % wb_cyc_o $end
$var reg 8 S wb_dat_o [7:0] $end
$var reg 2 T wb_state [1:0] $end
$var reg 1 " wb_stb_o $end
$var reg 1 ! wb_we_o $end
$upscope $end
$scope module dut_regs $end
$var wire 1 ) clk $end
$var wire 1 * rst $end
$var wire 5 U wb_adr_i [4:0] $end
$var wire 1 % wb_cyc_i $end
$var wire 8 V wb_dat_i [7:0] $end
$var wire 1 " wb_stb_i $end
$var wire 1 ! wb_we_i $end
$var parameter 32 W ADDR_WIDTH $end
$var parameter 32 X DATA_WIDTH $end
$var parameter 37 Y DEPTH $end
$var parameter 8 Z RESET_VALUE $end
$var reg 1 ' wb_ack_o $end
$var reg 8 [ wb_dat_o [7:0] $end
$var integer 32 \ i [31:0] $end
$upscope $end
$scope task check_write_read $end
$var reg 16 ] addr [15:0] $end
$var reg 8 ^ rd [7:0] $end
$var reg 8 _ value [7:0] $end
$upscope $end
$scope task spi_byte $end
$var reg 8 ` rx [7:0] $end
$var reg 8 a tx [7:0] $end
$var integer 32 b i [31:0] $end
$upscope $end
$scope task spi_read $end
$var reg 16 c addr [15:0] $end
$var reg 8 d data [7:0] $end
$var reg 8 e rx [7:0] $end
$upscope $end
$scope task spi_write $end
$var reg 16 f addr [15:0] $end
$var reg 8 g data [7:0] $end
$var reg 8 h dummy [7:0] $end
$upscope $end
$upscope $end
$enddefinitions $end
$comment Show the parameter values. $end
$dumpall
b0 Z
b100000 Y
b1000 X
b101 W
b1 7
b0 6
b10 5
$end
#0
$dumpvars
bx h
bx g
bx f
bx e
bx d
bx c
bx b
bx a
bx `
bx _
bx ^
bx ]
bx \
bx [
bx V
bx U
bx T
bx S
bx R
bx Q
xP
bx O
xN
xM
xL
xK
xJ
xI
xH
xG
xF
xE
xD
xC
bx B
xA
x@
bx ?
bx >
bx =
bx <
bx ;
bx :
bx 9
bx 8
x4
bx 3
x2
x1
b0 0
b0 /
b0 .
0-
0,
1+
1*
0)
x(
x'
bx &
x%
bx $
bx #
x"
x!
$end
#18500
1(
b0 U
0L
0A
0M
b0 ?
b0 8
b0 :
b0 9
b0 >
b0 <
b0 =
b0 ;
0@
0P
b0 O
0N
b11111111 Q
0C
b11111111 B
0"
0%
0!
b0 #
b0 S
b0 V
b0 &
b0 R
b0 T
0G
0I
1D
b0 $
b0 3
b0 [
0'
b100000 \
1)
#37000
0)
#55500
02
0H
0J
04
1E
b100000 \
1)
#74000
0)
#92500
01
0K
1F
b100000 \
1)
#111000
0)
#129500
b100000 \
1)
#148000
0)
#166500
b100000 \
1)
#185000
0)
#200000
0+
b10010 g
b0 f
b10010 _
b0 ]
0*
#203500
0D
1)
#222000
0)
#240500
14
0E
1)
#259000
0)
#277500
0F
1)
#296000
0)
#314500
1)
#333000
0)
#351500
1)
#370000
0)
#388500
1)
#407000
0)
#425500
1)
#444000
0)
#462500
1)
#481000
0)
#499500
1)
#518000
0)
#536500
1)
#555000
0)
#573500
1)
#592000
0)
#610500
1)
#629000
0)
#647500
1)
#666000
0)
#684500
1)
#700000
b111 b
b0 `
b1 a
